{
  "info" : {
    "version" : 1,
    "author" : "xcode"
  },
  "data" : [
    {
      "idiom" : "universal",
      "filename" : "wiremock.jar",
      "universal-type-identifier" : "com.sun.java-archive"
    }
  ]
}